Data Visualization (WQ25) - Week 3: Proportions
…
GSOEP is an ongoing longitudinal panel study that began in 1984 (26 waves of data!)

~20,000 people are sampled each year

Samples households in Germany

Has additional sub-projects (e.g., innovation studies, migrant panel, etc.)

The data are publicly available via application

load(url("https://github.com/emoriebeck/psc290-data-viz-2022/raw/main/03-week3-proportions/04-data/gsoep.RData"))
gsoep

# A tibble: 480,798 × 10
    year   SID SRhealth marital chldbrth   gender yearBrth mortality   job   age
   <dbl> <dbl>    <dbl>   <dbl>    <dbl> <hvn_lb>    <dbl>     <dbl> <dbl> <dbl>
 1  1984   901       NA      NA       NA        2     1951         0    NA    33
 2  1984  1001       NA      NA       NA        2     1913         0    NA    71
 3  1984  1101       NA      NA       NA        2     1906         0    NA    78
 4  1984  1201       NA      NA       NA        1     1911         0    NA    73
 5  1984  1202       NA      NA       NA        2     1913         0    NA    71
 6  1984  1301       NA      NA       NA        2     1943         0    NA    41
 7  1984  1302       NA      NA       NA        1     1965         0    NA    19
 8  1984  1901       NA      NA       NA        2     1948         0    NA    36
 9  1984  2001       NA      NA       NA        2     1949         0    NA    35
10  1984  2002       NA      NA       NA        1     1952         0    NA    32
# ℹ 480,788 more rows
…
  filter(!is.na(age_gr) & age >= 20 & age < 100) %>%
  group_by(SID) %>%
  filter(!is.na(job)) %>%
  filter(age_gr == max(age_gr)) %>%
  group_by(SID, age_gr) %>%
  summarize(job = max(job)) %>%
  ungroup() %>%
  rename(code = job) %>%
  left_join(jobs %>% rename(code = old)) %>%
  group_by(code) %>%
  filter(n() / nrow(.) >= .02) %>%
  ungroup() 
gsoep_jobs

# A tibble: 4,326 × 5
      SID age_gr  code job                                      cat             
    <dbl>  <dbl> <dbl> <chr>                                    <chr>           
 1  12303     40    85 Health And Social Work                   Public Service  
 2  13603     60    80 Education                                Public Service  
 3  35905     60    85 Health And Social Work                   Public Service  
 4  71704     30    28 Manuf Fabric.Metal Prod. Ex.Machin. Equi Manufacturing   
 5  73605     80    29 Manuf Machinery And Equipment NEC        Manufacturing   
 6  79603     20    55 Hotels And Restaurants                   Sales and Servi…
 7  84805     70    45 Construction                             Sales and Servi…
 8  85307     30    74 Other Business Activities                Finance and Tech
 9  89405     70    74 Other Business Activities                Finance and Tech
10 112505     30    65 Financ.Intermediat. Exc.Insur. Pens.Fund Finance and Tech
# ℹ 4,316 more rows
…
