Data Visualization (WQ25) - Week 2 (Slides) - Cognitive Perspectives and Introduction to ggplot2
…
Specifically, these include data from Beck & Jackson (2022)

In that paper I built personalized machine learning models of behaviors and experiences from sets of:

psychological

situational

and time variables

load(url("https://github.com/emoriebeck/psc290-data-viz-2022/raw/main/02-week2-ggplot2/01-data/ipcs_data.RData"))
ipcs_data %>% 
  print(n = 6)

# A tibble: 4,222 × 70
  SID   Full_Date    afraid angry attentive content excited goaldir guilty happy
  <chr> <chr>         <dbl> <dbl>     <dbl>   <dbl>   <dbl>   <dbl>  <dbl> <dbl>
1 02    2018-10-22 …      1     2         4       4       2       5      2     3
2 02    2018-10-22 …      1     1         4       3       2       5      1     3
3 02    2018-10-23 …      2     1         2       3       1       2      2     3
4 02    2018-10-23 …      2     2         4       3       2       4      1     3
5 02    2018-10-23 …      2     1         4       4       3       4      1     3
6 02    2018-10-24 …      2     1         4       4       2       4      1     3
# ℹ 4,216 more rows
# ℹ 60 more variables: proud <dbl>, purposeful <dbl>,
#   agreeableness_Compassion <dbl>, agreeableness_Respectfulness <dbl>,
#   agreeableness_Trust <dbl>, conscientiousness_Organization <dbl>,
#   conscientiousness_Productiveness <dbl>,
#   conscientiousness_Responsibility <dbl>, extraversion_Assertiveness <dbl>,
#   extraversion_Energy.Level <dbl>, extraversion_Sociability <dbl>, …
…
Say that you want to facet by variable, for example, but your data is in wide form

Facets couldn’t handle that

ipcs_data %>%
  filter(SID == "216") %>%
  select(SID, beep, afraid:content) %>%
  pivot_longer(
    cols = afraid:content
    , names_to = "item"
    , values_to = "value"
  ) %>%
  print(n = 8)

# A tibble: 432 × 4
  SID    beep item      value
  <chr> <int> <chr>     <dbl>
1 216       1 afraid        1
2 216       1 angry         2
3 216       1 attentive     3
4 216       1 content       4
5 216       2 afraid        2
6 216       2 angry         2
7 216       2 attentive     3
8 216       2 content       4
# ℹ 424 more rows
…
